{
    "id": "org.qt.photoqt",
    "runtime": "org.kde.Platform",
    "runtime-version": "5.10",
    "sdk": "org.kde.Sdk",
    "command": "photoqt",
    "rename-desktop-file": "photoqt.desktop",
    "rename-appdata-file": "photoqt.appdata.xml",
    "rename-icon": "photoqt",
    "finish-args": ["--share=ipc","--socket=x11","--socket=wayland","--filesystem=host","--device=dri","--socket=pulseaudio"],

    "modules": [
		{
			"name": "exiv2",
            "cmake": true,
            "builddir": true,
			"sources": [ { "type": "archive", "url": "http://exiv2.org/exiv2-0.25.tar.gz", "sha256":"c80bfc778a15fdb06f71265db2c3d49d8493c382e516cb99b8c9f9cbde36efa4" } ]
		},
		{
			"name": "libraw",
            "cmake": false,
            "builddir": true,
			"sources": [ { "type": "archive", "url": "https://www.libraw.org/data/LibRaw-0.18.8.tar.gz", "sha256":"56aca4fd97038923d57d2d17d90aa11d827f1f3d3f1d97e9f5a0d52ff87420e2" } ]
		},
		{
			"name": "graphicsmagick",
            "cmake": false,
            "builddir": true,
            "config-opts": ["--enable-shared", "--with-modules", "--with-perl", "--with-quantum-depth=16", "--with-threads"],
			"sources": [ { "type": "archive", "url": "http://ftp.icm.edu.pl/pub/unix/graphics/GraphicsMagick/1.3/GraphicsMagick-1.3.28.tar.gz", "md5":"fbc860ae180aac7757703d05660c9cf5" } ]
		},
		{
			"name": "photoqt",
            "cmake": true,
            "builddir": true,
            "config-opts": ["-DGM=ON", "-DEXIV2=ON", "-DRAW=ON"],
			"sources": [ { "type": "git", "tag": "v1.6", "commit": "9d9c8210b1a93487c43ab8c139c9032844ee128f", "url": "https://gitlab.com/luspi/photoqt.git" } ]
		}
    ]
}
